{
  "_class": "group",
  "do_objectID": "3EBD49FD-C6B6-4E92-BB4B-E23DCDA1EB75",
  "exportOptions": {
    "_class": "exportOptions",
    "exportFormats": [
    ],
    "includedLayerIds": [
    ],
    "layerOptions": 0,
    "shouldTrim": false
  },
  "frame": {
    "_class": "rect",
    "constrainProportions": false,
    "height": 2097,
    "width": 97,
    "x": 462,
    "y": 120
  },
  "hasClickThrough": false,
  "isFlippedHorizontal": false,
  "isFlippedVertical": false,
  "isLocked": false,
  "isVisible": true,
  "layerListExpandedType": 0,
  "layers": [
    {
      "class": "shapeGroup",
      "id": "AE67912F-7A7C-406B-A663-11A09CBD1F93"
    },
    {
      "class": "shapeGroup",
      "id": "FA5D1A37-2D42-4005-8E24-505362F7B4B9"
    },
    {
      "class": "shapeGroup",
      "id": "CF7FAA7F-832F-46DF-B85D-6E98F0403784"
    },
    {
      "class": "shapeGroup",
      "id": "C40AEE62-630B-4526-9983-5F0F132C92DE"
    },
    {
      "class": "group",
      "id": "5E24EAF1-6229-47A3-9C6A-9574CA1067A2"
    }
  ],
  "name": "milestone copy",
  "nameIsFixed": true,
  "resizingConstraint": 63,
  "resizingType": 0,
  "rotation": 0,
  "shouldBreakMaskChain": false,
  "style": {
    "_class": "style",
    "endDecorationType": 0,
    "miterLimit": 10,
    "startDecorationType": 0
  }
}